<?xml version="1.0" encoding="UTF-8"?>
		<svg width="15px" height="15px" viewBox="0 0 15 15" version="1.1" xmlns="http://www.w3.org/2000/svg" xmlns:xlink="http://www.w3.org/1999/xlink">
			<title>Oval</title>
				<g transform="translate(-2.000000, -2.000000)" fill=" #f7ff05 " stroke=" #f7ff05 ">
					<circle id="Oval" cx="9" cy="9" r="5"></circle>
				</g>
		</svg>